{
    "nodes": [
        {
            "id": "fatima_tricycle_terminal_97",
            "x": 14.317986012975812,
            "y": 120.9717157611871,
            "type": "tricycle"
        },
        {
            "id": "fatima_tricycle_terminal_98",
            "x": 14.317871661585086,
            "y": 120.97316415399828,
            "type": "tricycle"
        },
        {
            "id": "fatima_tricycle_terminal_99",
            "x": 14.317975617397234,
            "y": 120.97367913810892,
            "type": "tricycle"
        },
        {
            "id": "fatima_tricycle_terminal_100",
            "x": 14.318214715582526,
            "y": 120.9746018179738,
            "type": "tricycle"
        },
        {
            "id": "fatima_tricycle_terminal_101",
            "x": 14.318089968735025,
            "y": 120.97551376900306,
            "type": "tricycle"
        },
        {
            "id": "fatima_tricycle_terminal_102",
            "x": 14.318037990861443,
            "y": 120.97632916051157,
            "type": "tricycle"
        },
        {
            "id": "fatima_tricycle_terminal_103",
            "x": 14.318360253483672,
            "y": 120.97636134701848,
            "type": "tricycle"
        },
        {
            "id": "fatima_tricycle_terminal_104",
            "x": 14.319004777340227,
            "y": 120.97629697400465,
            "type": "tricycle"
        },
        {
            "id": "fatima_tricycle_terminal_105",
            "x": 14.319264665468515,
            "y": 120.9774020440754,
            "type": "tricycle"
        },
        {
            "id": "fatima_tricycle_terminal_106",
            "x": 14.31960771733711,
            "y": 120.97826035092646,
            "type": "tricycle"
        },
        {
            "id": "fatima_tricycle_terminal_107",
            "x": 14.319919582217224,
            "y": 120.97870023318765,
            "type": "tricycle"
        },
        {
            "id": "fatima_tricycle_terminal_108",
            "x": 14.320397774191783,
            "y": 120.97976238791584,
            "type": "tricycle"
        },
        {
            "id": "fatima_tricycle_terminal_109",
            "x": 14.320283424029691,
            "y": 120.98028810086213,
            "type": "tricycle"
        },
        {
            "id": "fatima_tricycle_terminal_110",
            "x": 14.31960771733711,
            "y": 120.98091037332915,
            "type": "tricycle"
        }
    ],
    "links": [
        {
            "source": "fatima_tricycle_terminal_97",
            "target": "fatima_tricycle_terminal_98",
            "weight": 0.15657025693010063,
            "type": "tricycle"
        },
        {
            "source": "fatima_tricycle_terminal_98",
            "target": "fatima_tricycle_terminal_99",
            "weight": 0.05667686393224925,
            "type": "tricycle"
        },
        {
            "source": "fatima_tricycle_terminal_99",
            "target": "fatima_tricycle_terminal_100",
            "weight": 0.10290533334769317,
            "type": "tricycle"
        },
        {
            "source": "fatima_tricycle_terminal_100",
            "target": "fatima_tricycle_terminal_101",
            "weight": 0.09922986845545745,
            "type": "tricycle"
        },
        {
            "source": "fatima_tricycle_terminal_101",
            "target": "fatima_tricycle_terminal_102",
            "weight": 0.08804196782957106,
            "type": "tricycle"
        },
        {
            "source": "fatima_tricycle_terminal_102",
            "target": "fatima_tricycle_terminal_103",
            "weight": 0.0360017757442335,
            "type": "tricycle"
        },
        {
            "source": "fatima_tricycle_terminal_103",
            "target": "fatima_tricycle_terminal_104",
            "weight": 0.07200339643809796,
            "type": "tricycle"
        },
        {
            "source": "fatima_tricycle_terminal_104",
            "target": "fatima_tricycle_terminal_105",
            "weight": 0.12251900095830531,
            "type": "tricycle"
        },
        {
            "source": "fatima_tricycle_terminal_105",
            "target": "fatima_tricycle_terminal_106",
            "weight": 0.1000339849853226,
            "type": "tricycle"
        },
        {
            "source": "fatima_tricycle_terminal_106",
            "target": "fatima_tricycle_terminal_107",
            "weight": 0.0587258112615287,
            "type": "tricycle"
        },
        {
            "source": "fatima_tricycle_terminal_107",
            "target": "fatima_tricycle_terminal_108",
            "weight": 0.12618790395890225,
            "type": "tricycle"
        },
        {
            "source": "fatima_tricycle_terminal_108",
            "target": "fatima_tricycle_terminal_109",
            "weight": 0.05805056418071384,
            "type": "tricycle"
        },
        {
            "source": "fatima_tricycle_terminal_109",
            "target": "fatima_tricycle_terminal_110",
            "weight": 0.10069941531192732,
            "type": "tricycle"
        }
    ]
}